id,name,model_id:id,group_id:id,perm_read,perm_write,perm_create,perm_unlink
access_vit_kanban,access_vit_kanban,model_vit_kanban,,1,1,1,1
access_vit_kanban_package,access_vit_kanban_package,model_vit_kanban_package,,1,1,1,0
access_vit_kanban_package_big,access_vit_kanban_package_big,model_vit_kanban_package_big,,1,1,1,1
access_vit_kanban_isj,access_vit_kanban_isj,model_vit_kanban_isj,,1,1,1,1
access_vit_kanban_isj_lines,access_vit_kanban_isj_lines,model_vit_kanban_isj_lines,,1,1,1,1